%YAML 1.1
%TAG !u! tag:unity3d.com,2011:
--- !u!114 &11400000
MonoBehaviour:
  m_ObjectHideFlags: 0
  m_CorrespondingSourceObject: {fileID: 0}
  m_PrefabInstance: {fileID: 0}
  m_PrefabAsset: {fileID: 0}
  m_GameObject: {fileID: 0}
  m_Enabled: 1
  m_EditorHideFlags: 0
  m_Script: {fileID: 11500000, guid: a7fa946592a2adf40ba680fd8a395a01, type: 3}
  m_Name: Cris
  m_EditorClassIdentifier: 
  name: Cris
  description: 
  Type: 4
  power: 0
  accuracy: 0
  alwaysHit: 1
  pp: 0
  priority: 0
  category: 2
  effects:
    boosts:
    - stat: 1
      boost: -3
    status: 0
    volatileStatus: 0
  secondaryEffects: []
  target: 0
