%YAML 1.1
%TAG !u! tag:unity3d.com,2011:
--- !u!1 &3995625858212432107
GameObject:
  m_ObjectHideFlags: 0
  m_CorrespondingSourceObject: {fileID: 0}
  m_PrefabInstance: {fileID: 0}
  m_PrefabAsset: {fileID: 0}
  serializedVersion: 6
  m_Component:
  - component: {fileID: 3995625858212432105}
  - component: {fileID: 3995625858212432106}
  m_Layer: 0
  m_Name: 001
  m_TagString: Untagged
  m_Icon: {fileID: 0}
  m_NavMeshLayer: 0
  m_StaticEditorFlags: 0
  m_IsActive: 1
--- !u!4 &3995625858212432105
Transform:
  m_ObjectHideFlags: 0
  m_CorrespondingSourceObject: {fileID: 0}
  m_PrefabInstance: {fileID: 0}
  m_PrefabAsset: {fileID: 0}
  m_GameObject: {fileID: 3995625858212432107}
  m_LocalRotation: {x: 0, y: 1, z: 0, w: 0}
  m_LocalPosition: {x: -1.32, y: 1.695, z: 8.63}
  m_LocalScale: {x: 1, y: 1, z: 1}
  m_Children:
  - {fileID: 8217349969832136482}
  m_Father: {fileID: 0}
  m_RootOrder: 0
  m_LocalEulerAnglesHint: {x: 0, y: 180, z: 0}
--- !u!65 &3995625858212432106
BoxCollider:
  m_ObjectHideFlags: 0
  m_CorrespondingSourceObject: {fileID: 0}
  m_PrefabInstance: {fileID: 0}
  m_PrefabAsset: {fileID: 0}
  m_GameObject: {fileID: 3995625858212432107}
  m_Material: {fileID: 0}
  m_IsTrigger: 0
  m_Enabled: 1
  serializedVersion: 2
  m_Size: {x: 1, y: 3.2, z: 0.6}
  m_Center: {x: 0, y: -0.05, z: -0.03}
--- !u!1001 &3995625857093788728
PrefabInstance:
  m_ObjectHideFlags: 0
  serializedVersion: 2
  m_Modification:
    m_TransformParent: {fileID: 3995625858212432105}
    m_Modifications:
    - target: {fileID: -927199367670048503, guid: cd21119af5156ab43ac77bedc0e229e3,
        type: 3}
      propertyPath: m_Name
      value: Project01
      objectReference: {fileID: 0}
    - target: {fileID: -4216859302048453862, guid: cd21119af5156ab43ac77bedc0e229e3,
        type: 3}
      propertyPath: m_LocalPosition.x
      value: -0.19
      objectReference: {fileID: 0}
    - target: {fileID: -4216859302048453862, guid: cd21119af5156ab43ac77bedc0e229e3,
        type: 3}
      propertyPath: m_LocalPosition.y
      value: 0.71
      objectReference: {fileID: 0}
    - target: {fileID: -4216859302048453862, guid: cd21119af5156ab43ac77bedc0e229e3,
        type: 3}
      propertyPath: m_LocalPosition.z
      value: -2.35
      objectReference: {fileID: 0}
    - target: {fileID: -4216859302048453862, guid: cd21119af5156ab43ac77bedc0e229e3,
        type: 3}
      propertyPath: m_LocalRotation.x
      value: -0
      objectReference: {fileID: 0}
    - target: {fileID: -4216859302048453862, guid: cd21119af5156ab43ac77bedc0e229e3,
        type: 3}
      propertyPath: m_LocalRotation.y
      value: -0
      objectReference: {fileID: 0}
    - target: {fileID: -4216859302048453862, guid: cd21119af5156ab43ac77bedc0e229e3,
        type: 3}
      propertyPath: m_LocalRotation.z
      value: -0
      objectReference: {fileID: 0}
    - target: {fileID: -4216859302048453862, guid: cd21119af5156ab43ac77bedc0e229e3,
        type: 3}
      propertyPath: m_LocalRotation.w
      value: 1
      objectReference: {fileID: 0}
    - target: {fileID: -4216859302048453862, guid: cd21119af5156ab43ac77bedc0e229e3,
        type: 3}
      propertyPath: m_RootOrder
      value: 0
      objectReference: {fileID: 0}
    - target: {fileID: -4216859302048453862, guid: cd21119af5156ab43ac77bedc0e229e3,
        type: 3}
      propertyPath: m_LocalEulerAnglesHint.x
      value: 0
      objectReference: {fileID: 0}
    - target: {fileID: -4216859302048453862, guid: cd21119af5156ab43ac77bedc0e229e3,
        type: 3}
      propertyPath: m_LocalEulerAnglesHint.y
      value: 0
      objectReference: {fileID: 0}
    - target: {fileID: -4216859302048453862, guid: cd21119af5156ab43ac77bedc0e229e3,
        type: 3}
      propertyPath: m_LocalEulerAnglesHint.z
      value: 0
      objectReference: {fileID: 0}
    - target: {fileID: -4216859302048453862, guid: cd21119af5156ab43ac77bedc0e229e3,
        type: 3}
      propertyPath: m_LocalScale.x
      value: 0.1
      objectReference: {fileID: 0}
    - target: {fileID: -4216859302048453862, guid: cd21119af5156ab43ac77bedc0e229e3,
        type: 3}
      propertyPath: m_LocalScale.y
      value: 0.1
      objectReference: {fileID: 0}
    - target: {fileID: -4216859302048453862, guid: cd21119af5156ab43ac77bedc0e229e3,
        type: 3}
      propertyPath: m_LocalScale.z
      value: 0.1
      objectReference: {fileID: 0}
    m_RemovedComponents: []
  m_SourcePrefab: {fileID: 100100000, guid: cd21119af5156ab43ac77bedc0e229e3, type: 3}
--- !u!4 &8217349969832136482 stripped
Transform:
  m_CorrespondingSourceObject: {fileID: -4216859302048453862, guid: cd21119af5156ab43ac77bedc0e229e3,
    type: 3}
  m_PrefabInstance: {fileID: 3995625857093788728}
  m_PrefabAsset: {fileID: 0}
