%YAML 1.1
%TAG !u! tag:unity3d.com,2011:
--- !u!114 &11400000
MonoBehaviour:
  m_ObjectHideFlags: 0
  m_CorrespondingSourceObject: {fileID: 0}
  m_PrefabInstance: {fileID: 0}
  m_PrefabAsset: {fileID: 0}
  m_GameObject: {fileID: 0}
  m_Enabled: 1
  m_EditorHideFlags: 0
  m_Script: {fileID: 11500000, guid: a7fa946592a2adf40ba680fd8a395a01, type: 3}
  m_Name: Frappe
  m_EditorClassIdentifier: 
  name: Frappe
  description: 
  Type: 1
  power: 20
  accuracy: 100
  alwaysHit: 1
  pp: 20
  priority: 0
  category: 0
  effects:
    boosts: []
    status: 0
    volatileStatus: 0
  secondaryEffects: []
  target: 0
